<?xml version="1.0" encoding="UTF-8" standalone="no"?>
<!-- Created with Inkscape (http://www.inkscape.org/) -->

<svg
   width="200"
   height="100"
   viewBox="0 0 52.916666 26.458334"
   version="1.1"
   id="svg5"
   inkscape:version="1.1.2 (0a00cf5339, 2022-02-04)"
   sodipodi:docname="add-to-queue.svg"
   inkscape:export-filename="/home/wmww/code/tv200/control/assets/icon_192.png"
   inkscape:export-xdpi="96"
   inkscape:export-ydpi="96"
   xmlns:inkscape="http://www.inkscape.org/namespaces/inkscape"
   xmlns:sodipodi="http://sodipodi.sourceforge.net/DTD/sodipodi-0.dtd"
   xmlns:xlink="http://www.w3.org/1999/xlink"
   xmlns="http://www.w3.org/2000/svg"
   xmlns:svg="http://www.w3.org/2000/svg">
  <sodipodi:namedview
     id="namedview7"
     pagecolor="#303030"
     bordercolor="#666666"
     borderopacity="1.0"
     inkscape:pageshadow="2"
     inkscape:pageopacity="0"
     inkscape:pagecheckerboard="0"
     inkscape:document-units="px"
     showgrid="false"
     units="px"
     width="192px"
     showguides="true"
     inkscape:zoom="2.3450066"
     inkscape:cx="115.5647"
     inkscape:cy="106.18307"
     inkscape:window-width="1920"
     inkscape:window-height="1021"
     inkscape:window-x="0"
     inkscape:window-y="0"
     inkscape:window-maximized="1"
     inkscape:current-layer="layer1" />
  <defs
     id="defs2">
    <rect
       x="31.503706"
       y="93.114372"
       width="92.086845"
       height="54.883144"
       id="rect3341" />
    <linearGradient
       inkscape:collect="always"
       xlink:href="#linearGradient1217"
       id="linearGradient1219"
       x1="26.519903"
       y1="23.851355"
       x2="5.2916665"
       y2="23.812498"
       gradientUnits="userSpaceOnUse"
       gradientTransform="matrix(0.75000003,0,0,1,-3.9687502,0)" />
    <linearGradient
       inkscape:collect="always"
       id="linearGradient1217">
      <stop
         style="stop-color:#ffffff;stop-opacity:1;"
         offset="0"
         id="stop1213" />
      <stop
         style="stop-color:#ffffff;stop-opacity:0;"
         offset="1"
         id="stop1215" />
    </linearGradient>
  </defs>
  <g
     inkscape:label="Layer 1"
     inkscape:groupmode="layer"
     id="layer1">
    <text
       xml:space="preserve"
       transform="scale(0.26458333)"
       id="text3339"
       style="font-style:normal;font-weight:normal;font-size:40px;line-height:1.25;font-family:sans-serif;letter-spacing:0px;word-spacing:0px;white-space:pre;shape-inside:url(#rect3341);fill:#000000;fill-opacity:1;stroke:none" />
    <rect
       style="fill:#ffffff;stroke-width:2.63723;stroke-linecap:round;stroke-linejoin:bevel"
       id="rect1169-3"
       width="15.875"
       height="7.9375"
       x="19.84375"
       y="18.520834" />
    <rect
       style="fill:#ffffff;stroke-width:2.95767;stroke-linecap:round;stroke-linejoin:bevel"
       id="rect1325"
       width="5.2916665"
       height="21.166666"
       x="39.687504"
       y="1.3229166" />
    <rect
       style="fill:#ffffff;stroke-width:2.95767;stroke-linecap:round;stroke-linejoin:bevel"
       id="rect1325-7"
       width="21.166666"
       height="5.2916665"
       x="31.75"
       y="9.260416" />
    <rect
       style="fill:url(#linearGradient1219);fill-opacity:1;stroke-width:2.63723;stroke-linecap:round;stroke-linejoin:bevel"
       id="rect1169-3-3"
       width="15.875"
       height="7.9375"
       x="0"
       y="18.520834" />
  </g>
</svg>
